9
18
2015 17 2015-12-01 2015-12-02 2015-12-03 2015-12-04 2015-12-05 2015-12-06 2015-12-07 2015-12-08 2015-12-10 2015-12-09& 2015-12-03 2015-12-06 2015-01-01 2015-04-15 2015-05-01 2015-08-31 2015-09-16 2015-12-25
